id	str	is.word	resp	rt
1	terzo	0	0	3139.76385723
2	pellizcar	1	1	3132.77085723
3	pulmones	1	1	1444.68885723
4	batillón	0	1	1534.73685723
5	zapato	1	1	887.63085723
6	tergiversar	1	1	2415.73085723
7	pésimo	1	1	981.05085723
8	cadeña	0	1	2889.64985723
9	hacha	1	1	1212.15885723
10	antar	0	0	2440.68085723
11	cenefa	1	0	1213.35585723
12	asesinato	1	1	1650.89785723
13	helar	1	1	1420.02885723
14	yunque	1	0	1680.57385723
15	regar	1	1	1043.27885723
16	abracer	0	1	1470.34585723
17	floroso	0	1	2457.84885723
18	arsa	0	0	1772.80785723
19	brecedad	0	0	1394.81885723
20	ávido	1	1	1455.71285723
21	capillo	0	0	1738.97885723
22	lacayo	1	0	1169.96485723
23	lampera	0	0	1769.20585723
24	látigo	1	1	1278.37785723
25	bisagra	1	0	1320.66585723
26	secuestro	1	1	1464.01885723
27	acutación	0	0	1980.01385723
28	merodear	1	1	2481.82485723
29	decar	0	0	1956.11185723
30	alardio	0	0	1211.12285723
31	pandilla	1	1	1303.60085723
32	fatacidad	0	0	3753.32085723
33	pauca	0	0	1095.59585723
34	aviso	1	1	1145.24685723
35	rompido	0	0	2073.77185723
36	loro	1	1	1068.97685723
37	granuja	1	0	1837.22485723
38	estornudar	1	1	2082.02885723
39	torpe	1	1	1003.55685723
40	alfombra	1	1	863.88485723
41	rebuscar	1	1	2410.15485723
42	cadallo	0	0	1320.71285723
43	canela	1	1	1329.23785723
44	cuchara	1	1	1200.31685723
45	jilguero	1	0	1133.14385723
46	martillo	1	1	989.35885723
47	cartinar	0	0	1834.83485723
48	ladrón	1	1	1014.95985723
49	ganar	1	1	1354.02585723
50	flamida	0	0	3354.50885723
51	candado	1	0	1889.32085723
52	camisa	1	1	953.48785723
53	vegada	0	0	1264.70985723
54	fomentar	1	1	1011.39085723
55	nevar	1	1	680.10285723
56	musgo	1	0	1138.49885723
57	tacaño	1	1	1073.47985723
58	plaudir	0	1	1178.77585723
59	besar	1	1	642.22985723
60	matar	1	1	493.49485723
61	seda	1	1	638.39485723
62	flaco	1	1	745.97185723
63	esposante	0	0	2209.89885723
64	orgulloso	1	1	997.02985723
65	bizcocho	1	1	1714.48985723
66	hacido	0	0	1483.76985723
67	cabello	1	1	948.86785723
68	alegre	1	1	773.46185723
69	engatusar	1	0	1772.34585723
70	temblo	0	1	2688.60685723
71	polvoriento	1	1	1771.76785723
72	pemición	0	0	2554.44485723
73	hervidor	1	1	1864.14485723
74	cintro	0	0	2028.63785723
75	yacer	1	1	785.16885723
76	atar	1	1	669.42085723
77	tiburón	1	1	1783.59685723
78	frondoso	1	0	1259.99485723
79	tropaje	0	0	1376.00985723
80	hormiga	1	1	853.76285723
81	pozo	1	1	585.04785723
82	empirador	0	0	1974.12885723
83	guante	1	1	699.25185723
84	escuto	0	0	1196.66685723
85	laúd	1	1	1282.43285723
86	barato	1	1	684.06685723
87	grodo	0	0	1453.74085723
88	acantilado	1	0	1223.02785723
89	prisa	1	1	747.99585723
90	clavel	1	1	860.11385723
