id	str	is.word	resp	rt
1	terzo	0	1	5343.69019726
2	pellizcar	1	1	3521.66019726
3	pulmones	1	1	1070.35619726
4	batillón	0	0	8156.45119726
5	zapato	1	1	1420.41619726
6	tergiversar	1	0	6619.61819726
7	pésimo	1	1	1749.42819726
8	cadeña	0	0	5684.75519726
9	hacha	1	1	2560.16219726
10	antar	0	0	3628.92419726
11	cenefa	1	0	4221.92519726
12	asesinato	1	1	1869.59419726
13	helar	1	1	1217.55819726
14	yunque	1	0	2487.08819726
15	regar	1	1	2378.16919726
16	abracer	0	0	3357.89419726
17	floroso	0	0	5393.88519726
18	arsa	0	0	4359.79719726
19	brecedad	0	0	3459.37719726
20	ávido	1	0	4042.84919726
21	capillo	0	0	5121.01619726
22	lacayo	1	1	2492.37919726
23	lampera	0	0	4107.84919726
24	látigo	1	1	1703.85619726
25	bisagra	1	1	3587.69219726
26	secuestro	1	1	1692.46719726
27	acutación	0	0	7910.75919726
28	merodear	1	1	4146.93719726
29	decar	0	0	4397.88919726
30	alardio	0	0	3214.39319726
31	pandilla	1	1	929.179197257
32	fatacidad	0	1	2986.76419726
33	pauca	0	0	3255.44819726
34	aviso	1	1	1160.16719726
35	rompido	0	0	5224.08919726
36	loro	1	1	1342.62619726
37	granuja	1	0	1933.85319726
38	estornudar	1	0	4014.64019726
39	torpe	1	1	1822.66819726
40	alfombra	1	1	1541.53319726
41	rebuscar	1	1	2493.23519726
42	cadallo	0	0	3479.39519726
43	canela	1	1	1165.24719726
44	cuchara	1	1	1190.35619726
45	jilguero	1	0	4663.84919726
46	martillo	1	1	1621.12719726
47	cartinar	0	0	2464.64619726
48	ladrón	1	1	771.648197257
49	ganar	1	1	844.381197257
50	flamida	0	0	2139.90619726
51	candado	1	1	1850.54819726
52	camisa	1	1	1078.87919726
53	vegada	0	0	1315.11119726
54	fomentar	1	1	2989.77219726
55	nevar	1	1	953.363197257
56	musgo	1	0	8523.75219726
57	tacaño	1	1	1286.15219726
58	plaudir	0	0	3024.54219726
59	besar	1	1	844.097197257
60	matar	1	1	1129.66619726
61	seda	1	1	7732.02519726
62	flaco	1	1	808.028197257
63	esposante	0	0	4103.14919726
64	orgulloso	1	1	1122.17219726
65	bizcocho	1	1	3237.10619726
66	hacido	0	0	4334.72419726
67	cabello	1	1	2424.98119726
68	alegre	1	1	1118.59719726
69	engatusar	1	0	3695.90819726
70	temblo	0	0	4590.38519726
71	polvoriento	1	1	2207.45619726
72	pemición	0	0	2290.84219726
73	hervidor	1	0	6949.63719726
74	cintro	0	0	3393.33519726
75	yacer	1	0	1708.68119726
76	atar	1	1	3237.04319726
77	tiburón	1	1	1501.58819726
78	frondoso	1	0	3424.27519726
79	tropaje	0	0	2522.77319726
80	hormiga	1	1	1177.66519726
81	pozo	1	1	1529.63619726
82	empirador	0	0	2755.74319726
83	guante	1	1	2392.11519726
84	escuto	0	0	1326.56719726
85	laúd	1	0	3640.68119726
86	barato	1	1	960.767197257
87	grodo	0	0	2098.24819726
88	acantilado	1	1	3347.56019726
89	prisa	1	1	1046.23319726
90	clavel	1	1	1285.62019726
