   grp en_score_p_m en_score_p_sd sp_score_p_m sp_score_p_sd
1 b.en           84             9           73            18
2 b.sp           90             8           84            10
3 m.en           92             6           49             5
4 m.sp           73             8           95             4
