id	str	is.word	resp	rt
0	platery	0	0	8102.1757207
0	denial	1	1	1496.1887207
0	generic	1	1	1186.5447207
1	mensible	0	0	2632.0337207
2	scornful	1	1	867.702720696
3	stoutly	1	1	2261.6007207
4	ablaze	1	1	1391.8697207
5	kermshaw	0	0	1679.2867207
6	moonlit	1	1	3839.4347207
7	lofty	1	1	1107.9807207
8	hurricane	1	1	1350.0807207
9	flaw	1	1	1093.2627207
10	alberation	0	0	2189.4747207
11	unkempt	1	1	1491.3337207
12	breeding	1	1	701.409720696
13	festivity	1	1	1262.6337207
14	screech	1	1	977.269720696
15	savoury	1	1	1319.1457207
16	plaudate	0	0	1279.2787207
17	shin	1	1	689.117720696
18	fluid	1	1	1096.6977207
19	spaunch	0	0	3506.3167207
20	allied	1	1	1243.5797207
21	slain	1	0	9752.6387207
22	recipient	1	1	857.162720696
23	exprate	0	0	1317.3207207
24	eloquence	1	1	1068.0207207
25	cleanliness	1	1	1709.5607207
26	dispatch	1	1	936.591720696
27	rebondicate	0	0	8557.5187207
28	ingenious	1	1	719.750720696
29	bewitch	1	1	1000.5677207
30	skave	0	0	1005.4467207
31	plaintively	1	0	3296.7887207
32	kilp	0	0	955.814720696
33	interfate	0	0	5274.6667207
34	hasty	1	1	749.807720696
35	lengthy	1	1	795.657720696
36	fray	1	1	586.515720696
37	crumper	0	0	1046.2647207
38	upkeep	1	1	1825.5777207
39	majestic	1	1	662.423720696
40	magrity	0	0	1632.3757207
41	nourishment	1	1	1356.9877207
42	abergy	0	0	1314.9237207
43	proom	0	0	987.196720696
44	turmoil	1	1	768.354720696
45	carbohydrate	1	1	1335.5217207
46	scholar	1	1	766.237720696
47	turtle	1	1	614.307720696
48	fellick	0	0	947.062720696
49	destription	0	0	1185.3397207
50	cylinder	1	1	671.014720696
51	censorship	1	1	903.495720696
52	celestial	1	1	905.727720696
53	rascal	1	1	778.144720696
54	purrage	0	0	1007.3517207
55	pulsh	0	0	1565.6657207
56	muddy	1	1	834.262720696
57	quirty	0	0	1238.1977207
58	pudour	0	0	1642.2887207
59	listless	1	0	3205.5157207
60	wrought	1	0	2562.4397207
