id	str	is.word	resp	rt
0	platery	0	0	95221.275
0	denial	1	1	97631.11
0	generic	1	1	99734.706
1	mensible	0	0	102230.601
2	scornful	1	0	104926.777
3	stoutly	1	0	107766.985
4	ablaze	1	0	112061.739
5	kermshaw	0	0	114365.921
6	moonlit	1	1	117341.235
7	lofty	1	1	119549.335
8	hurricane	1	0	122877.818
9	flaw	1	1	125158.54
10	alberation	0	0	128149.733
11	unkempt	1	0	132062.621
12	breeding	1	1	134230.294
13	festivity	1	1	136229.913
14	screech	1	1	138998.225
15	savoury	1	0	142814.236
16	plaudate	0	0	145605.864
17	shin	1	1	148396.784
18	fluid	1	1	150612.702
19	spaunch	0	0	152957.238
20	allied	1	1	155166.33
21	slain	1	1	159102.338
22	recipient	1	1	161422.832
23	exprate	0	0	163604.627
24	eloquence	1	1	166454.689
25	cleanliness	1	0	172565.769
26	dispatch	1	1	174748.777
27	rebondicate	0	0	177670.087
28	ingenious	1	1	179805.674
29	bewitch	1	1	181948.809
30	skave	0	0	184310.417
31	plaintively	1	0	186821.326
32	kilp	0	0	189333.511
33	interfate	0	1	194829.457
34	hasty	1	1	197109.791
35	lengthy	1	1	199092.924
36	fray	1	1	201166.496
37	crumper	0	0	204109.474
38	upkeep	1	1	206964.441
39	majestic	1	1	208733.879
40	magrity	0	0	210869.501
41	nourishment	1	1	213260.183
42	abergy	0	0	215181.367
43	proom	0	0	217181.727
44	turmoil	1	1	219276.441
45	carbohydrate	1	1	221524.938
46	scholar	1	1	223413.932
47	turtle	1	1	225325.078
48	fellick	0	0	227348.856
49	destription	0	0	229556.654
50	cylinder	1	0	235556.251
51	censorship	1	1	237627.928
52	celestial	1	1	239428.29
53	rascal	1	1	241869.075
54	purrage	0	0	244077.744
55	pulsh	0	0	246203.819
56	muddy	1	1	250324.559
57	quirty	0	1	252716.37
58	pudour	0	0	256156.152
59	listless	1	0	258187.667
60	wrought	1	1	263363.758
