id	str	is.word	resp	rt
1	terzo	0	1	3779.39622462
2	pellizcar	1	1	3172.99822462
3	pulmones	1	1	832.45722462
4	batillón	0	1	4031.07222462
5	zapato	1	1	1367.73322462
6	tergiversar	1	0	4511.68322462
7	pésimo	1	1	849.993224621
8	cadeña	0	1	7688.88522462
9	hacha	1	1	14310.7852246
10	antar	0	0	1419.42222462
11	cenefa	1	0	1627.10222462
12	asesinato	1	1	797.84022462
13	helar	1	1	1150.15422462
14	yunque	1	1	1456.70922462
15	regar	1	1	885.470224621
16	abracer	0	1	1193.05722462
17	floroso	0	1	6170.28522462
18	arsa	0	0	1566.20822462
19	brecedad	0	0	2317.61122462
20	ávido	1	1	902.477224621
21	capillo	0	1	1762.02022462
22	lacayo	1	0	1513.08722462
23	lampera	0	1	3051.18122462
24	látigo	1	1	779.447224621
25	bisagra	1	0	1757.92822462
26	secuestro	1	1	900.279224621
27	acutación	0	0	9744.21522462
28	merodear	1	0	1192.99222462
29	decar	0	0	1895.99522462
30	alardio	0	0	2441.48022462
31	pandilla	1	1	843.216224621
32	fatacidad	0	0	2051.18022462
33	pauca	0	0	1093.33322462
34	aviso	1	1	648.340224621
35	rompido	0	1	592.414224621
36	loro	1	1	1208.05822462
37	granuja	1	1	3767.47922462
38	estornudar	1	1	929.604224621
39	torpe	1	1	772.571224621
40	alfombra	1	1	773.341224621
41	rebuscar	1	1	1166.27422462
42	cadallo	0	0	12086.7912246
43	canela	1	1	739.280224621
44	cuchara	1	1	1109.71622462
45	jilguero	1	1	2289.69122462
46	martillo	1	1	776.895224621
47	cartinar	0	0	5283.20922462
48	ladrón	1	1	686.940224621
49	ganar	1	1	731.298224621
50	flamida	0	0	3909.22722462
51	candado	1	1	1018.32122462
52	camisa	1	1	570.951224621
53	vegada	0	0	4548.18422462
54	fomentar	1	1	734.477224621
55	nevar	1	1	738.555224621
56	musgo	1	0	1396.85622462
57	tacaño	1	0	2491.78822462
58	plaudir	0	1	1676.83422462
59	besar	1	1	1343.10222462
60	matar	1	1	593.064224621
61	seda	1	1	976.503224621
62	flaco	1	1	690.33022462
63	esposante	0	1	1590.87522462
64	orgulloso	1	1	588.635224621
65	bizcocho	1	1	751.560224621
66	hacido	0	1	592.76422462
67	cabello	1	1	2138.45422462
68	alegre	1	1	2952.93022462
69	engatusar	1	0	1527.39622462
70	temblo	0	1	1127.05622462
71	polvoriento	1	1	930.278224621
72	pemición	0	0	1436.88722462
73	hervidor	1	1	2425.52522462
74	cintro	0	0	1756.81722462
75	yacer	1	0	2774.47322462
76	atar	1	1	1347.06922462
77	tiburón	1	1	722.428224621
78	frondoso	1	0	4166.27622462
79	tropaje	0	1	1353.32922462
80	hormiga	1	1	601.72522462
81	pozo	1	1	626.250224621
82	empirador	0	1	1210.84122462
83	guante	1	1	1464.87122462
84	escuto	0	0	1371.92322462
85	laúd	1	0	2268.62222462
86	barato	1	1	703.37722462
87	grodo	0	0	970.82122462
88	acantilado	1	0	2587.46322462
89	prisa	1	1	737.291224621
90	clavel	1	1	1196.71822462
