id	str	is.word	resp	rt
1	terzo	0	0	8673.75311224
2	pellizcar	1	0	5589.89011224
3	pulmones	1	1	1619.27411224
4	batillón	0	1	1264.52711224
5	zapato	1	1	708.519112239
6	tergiversar	1	0	2743.56011224
7	pésimo	1	1	933.987112239
8	cadeña	0	1	969.944112239
9	hacha	1	0	5042.81011224
10	antar	0	1	1943.32511224
11	cenefa	1	1	2078.83811224
12	asesinato	1	1	1577.95611224
13	helar	1	1	2679.64611224
14	yunque	1	0	4183.96611224
15	regar	1	1	1050.03911224
16	abracer	0	0	3527.73511224
17	floroso	0	1	2220.43711224
18	arsa	0	1	1049.80111224
19	brecedad	0	1	6223.37811224
20	ávido	1	0	2872.98911224
21	capillo	0	1	1346.22811224
22	lacayo	1	0	1627.68511224
23	lampera	0	0	8815.69711224
24	látigo	1	1	1149.36511224
25	bisagra	1	1	1199.08611224
26	secuestro	1	1	1926.20111224
27	acutación	0	1	1703.41511224
28	merodear	1	1	2664.41311224
29	decar	0	1	1379.13811224
30	alardio	0	1	2938.48111224
31	pandilla	1	1	1784.93211224
32	fatacidad	0	0	3942.12311224
33	pauca	0	0	2402.35011224
34	aviso	1	1	799.245112239
35	rompido	0	1	1174.57811224
36	loro	1	1	1039.87011224
37	granuja	1	0	3020.80911224
38	estornudar	1	1	1262.46211224
39	torpe	1	1	1396.33511224
40	alfombra	1	1	980.050112239
41	rebuscar	1	0	2874.42111224
42	cadallo	0	0	2555.22411224
43	canela	1	1	970.639112239
44	cuchara	1	1	1227.02111224
45	jilguero	1	0	2169.95211224
46	martillo	1	1	1135.97011224
47	cartinar	0	0	2937.06511224
48	ladrón	1	1	830.625112239
49	ganar	1	1	663.428112239
50	flamida	0	1	1899.60911224
51	candado	1	1	981.181112239
52	camisa	1	1	661.817112239
53	vegada	0	0	2347.65611224
54	fomentar	1	1	1450.88211224
55	nevar	1	1	1199.25511224
56	musgo	1	0	1670.15511224
57	tacaño	1	1	2347.47411224
58	plaudir	0	0	1705.58011224
59	besar	1	1	796.307112239
60	matar	1	1	794.628112239
61	seda	1	1	2188.62311224
62	flaco	1	1	665.724112239
63	esposante	0	0	2774.50011224
64	orgulloso	1	1	884.802112239
65	bizcocho	1	1	1225.03611224
66	hacido	0	1	983.879112239
67	cabello	1	1	926.737112239
68	alegre	1	1	1794.89511224
69	engatusar	1	0	2776.40111224
70	temblo	0	1	748.309112239
71	polvoriento	1	0	2167.49011224
72	pemición	0	0	1686.47911224
73	hervidor	1	0	2216.08111224
74	cintro	0	0	3011.97911224
75	yacer	1	0	1984.34011224
76	atar	1	1	1132.80511224
77	tiburón	1	1	825.025112239
78	frondoso	1	1	2655.52611224
79	tropaje	0	0	2169.17511224
80	hormiga	1	1	1774.04211224
81	pozo	1	1	1039.44711224
82	empirador	0	1	1804.71611224
83	guante	1	1	1025.90411224
84	escuto	0	0	1817.64211224
85	laúd	1	0	1397.32311224
86	barato	1	1	893.084112239
87	grodo	0	0	1120.90011224
88	acantilado	1	1	3716.73311224
89	prisa	1	1	1008.38811224
90	clavel	1	1	2190.98711224
